/////////////////////////////////////////
// Sixth version of the scene file format
// 
// - It allows you to add comments like this one
// - Syntax itself is hopefully self explanatory
// - Name of the objects and attributes are defined inside the executable

///////////////////////////////////////
//    Global scene and viewpoint     //
/////////////////////////////////////// 

Scene 
{
	// make sure the version and the executable match !
	Version.Major = 1;
	Version.Minor = 5;

	Camera.Position = 0.0, 0.0, -300.0;
	Camera.Rotation = 0.0;
	Camera.FieldOfView = 90.0;

	// Image Exposure
	Exposure = -4.0;
	
	Skybox.Material.Id = 47;

	// Count the objects in the scene
	NumberOfMaterials = 48;
	NumberOfSpheres = 100;
	NumberOfLights = 300; 
	NumberOfBoxes = 5;
}

///////////////////////////////////////
//         List of materials         //
/////////////////////////////////////// 

Material0
{
        Diffuse = 0.160784, 0.137255, 0.745098;
        Reflection = 0.5;
        Specular = 1.2, 1.2, 1.2;
        Power = 60;
}
Material1
{
        Diffuse = 0.517647, 0.882353, 0.423529;
        Reflection = 0.5;
        Specular = 1.2, 1.2, 1.2;
        Power = 60;
}
Material2
{
        Diffuse = 0.839216, 0.682353, 0.321569;
        Reflection = 0.5;
        Specular = 1.2, 1.2, 1.2;
        Power = 60;
}
Material3
{
        Diffuse = 0.564706, 0.286275, 0.945098;
        Reflection = 0.5;
        Specular = 1.2, 1.2, 1.2;
        Power = 60;
}
Material4
{
        Diffuse = 0.945098, 0.733333, 0.913725;
        Reflection = 0.5;
        Specular = 1.2, 1.2, 1.2;
        Power = 60;
}
Material5
{
        Diffuse = 0.921569, 0.701961, 0.650980;
        Reflection = 0.5;
        Specular = 1.2, 1.2, 1.2;
        Power = 60;
}
Material6
{
        Diffuse = 0.858824, 0.235294, 0.529412;
        Reflection = 0.5;
        Specular = 1.2, 1.2, 1.2;
        Power = 60;
}
Material7
{
        Diffuse = 0.047059, 0.243137, 0.600000;
        Reflection = 0.5;
        Specular = 1.2, 1.2, 1.2;
        Power = 60;
}
Material8
{
        Diffuse = 0.141176, 0.368627, 0.050980;
        Reflection = 0.5;
        Specular = 1.2, 1.2, 1.2;
        Power = 60;
}
Material9
{
        Diffuse = 0.109804, 0.023529, 0.717647;
        Reflection = 0.5;
        Specular = 1.2, 1.2, 1.2;
        Power = 60;
}
Material10
{
        Diffuse = 0.278431, 0.870588, 0.701961;
        Reflection = 0.5;
        Specular = 1.2, 1.2, 1.2;
        Power = 60;
}
Material11
{
        Diffuse = 0.070588, 0.301961, 0.784314;
        Reflection = 0.5;
        Specular = 1.2, 1.2, 1.2;
        Power = 60;
}
Material12
{
        Diffuse = 0.262745, 0.733333, 0.545098;
        Reflection = 0.5;
        Specular = 1.2, 1.2, 1.2;
        Power = 60;
}
Material13
{
        Diffuse = 0.650980, 0.121569, 0.011765;
        Reflection = 0.5;
        Specular = 1.2, 1.2, 1.2;
        Power = 60;
}
Material14
{
        Diffuse = 0.352941, 0.490196, 0.035294;
        Reflection = 0.5;
        Specular = 1.2, 1.2, 1.2;
        Power = 60;
}
Material15
{
        Diffuse = 0.219608, 0.145098, 0.121569;
        Reflection = 0.5;
        Specular = 1.2, 1.2, 1.2;
        Power = 60;
}
Material16
{
        Diffuse = 0.364706, 0.831373, 0.796078;
        Reflection = 0.5;
        Specular = 1.2, 1.2, 1.2;
        Power = 60;
}
Material17
{
        Diffuse = 0.988235, 0.588235, 0.960784;
        Reflection = 0.5;
        Specular = 1.2, 1.2, 1.2;
        Power = 60;
}
Material18
{
        Diffuse = 0.270588, 0.231373, 0.074510;
        Reflection = 0.5;
        Specular = 1.2, 1.2, 1.2;
        Power = 60;
}
Material19
{
        Diffuse = 0.050980, 0.537255, 0.039216;
        Reflection = 0.5;
        Specular = 1.2, 1.2, 1.2;
        Power = 60;
}
Material20
{
        Diffuse = 0.109804, 0.858824, 0.682353;
        Reflection = 0.5;
        Specular = 1.2, 1.2, 1.2;
        Power = 60;
}
Material21
{
        Diffuse = 0.196078, 0.125490, 0.603922;
        Reflection = 0.5;
        Specular = 1.2, 1.2, 1.2;
        Power = 60;
}
Material22
{
        Diffuse = 0.313726, 0.933333, 0.250980;
        Reflection = 0.5;
        Specular = 1.2, 1.2, 1.2;
        Power = 60;
}
Material23
{
        Diffuse = 0.470588, 0.211765, 0.992157;
        Reflection = 0.5;
        Specular = 1.2, 1.2, 1.2;
        Power = 60;
}
Material24
{
        Diffuse = 0.070588, 0.286275, 0.196078;
        Reflection = 0.5;
        Specular = 1.2, 1.2, 1.2;
        Power = 60;
}
Material25
{
        Diffuse = 0.964706, 0.619608, 0.490196;
        Reflection = 0.5;
        Specular = 1.2, 1.2, 1.2;
        Power = 60;
}
Material26
{
        Diffuse = 0.286275, 0.862745, 0.678431;
        Reflection = 0.5;
        Specular = 1.2, 1.2, 1.2;
        Power = 60;
}
Material27
{
        Diffuse = 0.309804, 0.078431, 0.949020;
        Reflection = 0.5;
        Specular = 1.2, 1.2, 1.2;
        Power = 60;
}
Material28
{
        Diffuse = 0.266667, 0.250980, 0.400000;
        Reflection = 0.5;
        Specular = 1.2, 1.2, 1.2;
        Power = 60;
}
Material29
{
        Diffuse = 0.815686, 0.419608, 0.768627;
        Reflection = 0.5;
        Specular = 1.2, 1.2, 1.2;
        Power = 60;
}
Material30
{
        Diffuse = 0.188235, 0.717647, 0.196078;
        Reflection = 0.5;
        Specular = 1.2, 1.2, 1.2;
        Power = 60;
}
Material31
{
        Diffuse = 0.231373, 0.631373, 0.133333;
        Reflection = 0.5;
        Specular = 1.2, 1.2, 1.2;
        Power = 60;
}
Material32
{
        Diffuse = 0.964706, 0.133333, 0.568627;
        Reflection = 0.5;
        Specular = 1.2, 1.2, 1.2;
        Power = 60;
}
Material33
{
        Diffuse = 0.615686, 0.882353, 0.545098;
        Reflection = 0.5;
        Specular = 1.2, 1.2, 1.2;
        Power = 60;
}
Material34
{
        Diffuse = 0.121569, 0.854902, 0.690196;
        Reflection = 0.5;
        Specular = 1.2, 1.2, 1.2;
        Power = 60;
}
Material35
{
        Diffuse = 0.792157, 0.600000, 0.007843;
        Reflection = 0.5;
        Specular = 1.2, 1.2, 1.2;
        Power = 60;
}
Material36
{
        Diffuse = 0.725490, 0.447059, 0.615686;
        Reflection = 0.5;
        Specular = 1.2, 1.2, 1.2;
        Power = 60;
}
Material37
{
        Diffuse = 0.286275, 0.172549, 0.501961;
        Reflection = 0.5;
        Specular = 1.2, 1.2, 1.2;
        Power = 60;
}
Material38
{
        Diffuse = 0.494118, 0.772549, 0.600000;
        Reflection = 0.5;
        Specular = 1.2, 1.2, 1.2;
        Power = 60;
}
Material39
{
        Diffuse = 0.835294, 0.913725, 0.501961;
        Reflection = 0.5;
        Specular = 1.2, 1.2, 1.2;
        Power = 60;
}

Material40
{
	Type = checkerboard;
	Wrapping = planar_xz;
	Diffuse = 0.75, 0.75, 0.75;
	Diffuse2 = 0.25, 0.75, 0.25;
	Size = 100;

	Specular = 1.2, 1.2, 1.2;  
	Power = 60;
	Reflection = 0.05;
}

Material41
{
	Type = gouraud;

	Diffuse = 0.75, 0.25, 0.25;

//	Specular = 1.2, 1.2, 1.2;  
//	Power = 60;
	Reflection = 0.05;
}
Material42
{
	Type = gouraud;

	Diffuse = 0.25, 0.25, 0.75;

//	Specular = 1.2, 1.2, 1.2;  
//	Power = 60;
	Reflection = 0.05;
}
Material43
{
	Type = gouraud;

	Reflection = 0.3;

	Specular = 1.5, 1.5, 1.5;  
	Power = 30;
}
Material44
{
	Type = gouraud;

	Refraction = 1.0;
	Density = 2.0;

	Specular = 1.5, 1.5, 1.5;  
	Power = 30;
}
Material45
{
	Type = checkerboard;
	Wrapping = planar_xy;
	Diffuse = 0.9, 0.9, 0.9;
	Diffuse2 = 0.7, 0.7, 0.7;
	Size = 100;
}
Material46
{
	Type = checkerboard;
	Wrapping = planar_xz;
	Diffuse2 = 0.75, 0.75, 0.75;
	Diffuse = 0.25, 0.75, 0.25;
	Size = 100;
}
Material47
{
	Type = gouraud;

	Diffuse = 0, 0, 0;

	Reflection = 0.05;
}

///////////////////////////////////////
//         List of boxes             //
/////////////////////////////////////// 

Box0
{
        Point1 = -401, -401, 0;
        Point2 = 401, -400, 7000;
	Material.Id = 40;
}
Box1
{
        Point1 = -401, 400, 0;
        Point2 = 401, 401, 7000;
	Material.Id = 46;
}
Box2
{
        Point1 = -401, -401, 0;
        Point2 = -400, 401, 7000;
	Material.Id = 41;
}
Box3
{
        Point1 = 400, -401, 0;
        Point2 = 401, 401, 7000;
	Material.Id = 42;
}
Box4
{
        Point1 = -401, -401, 7000;
        Point2 = 401, 401, 7001;
	Material.Id = 45;
}

///////////////////////////////////////
//         List of spheres           //
///////////////////////////////////////

Sphere0
{
        Center = 0.0, 270.0, 7000;
        Size = 70.0;
        Material.Id = 0;
}
Sphere1
{
        Center = 83.4, 256.8, 6930;
        Size = 70.0;
        Material.Id = 1;
}
Sphere2
{
        Center = 158.7, 218.4, 6860;
        Size = 70.0;
        Material.Id = 2;
}
Sphere3
{
        Center = 218.4, 158.7, 6790;
        Size = 70.0;
        Material.Id = 3;
}
Sphere4
{
        Center = 256.8, 83.4, 6720;
        Size = 70.0;
        Material.Id = 4;
}
Sphere5
{
        Center = 270.0, 0.0, 6650;
        Size = 70.0;
        Material.Id = 5;
}
Sphere6
{
        Center = 256.8, -83.4, 6580;
        Size = 70.0;
        Material.Id = 6;
}
Sphere7
{
        Center = 218.4, -158.7, 6510;
        Size = 70.0;
        Material.Id = 7;
}
Sphere8
{
        Center = 158.7, -218.4, 6440;
        Size = 70.0;
        Material.Id = 8;
}
Sphere9
{
        Center = 83.4, -256.8, 6370;
        Size = 70.0;
        Material.Id = 9;
}
Sphere10
{
        Center = 0.0, -270.0, 6300;
        Size = 70.0;
        Material.Id = 10;
}
Sphere11
{
        Center = -83.4, -256.8, 6230;
        Size = 70.0;
        Material.Id = 11;
}
Sphere12
{
        Center = -158.7, -218.4, 6160;
        Size = 70.0;
        Material.Id = 12;
}
Sphere13
{
        Center = -218.4, -158.7, 6090;
        Size = 70.0;
        Material.Id = 13;
}
Sphere14
{
        Center = -256.8, -83.4, 6020;
        Size = 70.0;
        Material.Id = 14;
}
Sphere15
{
        Center = -270.0, -0.0, 5950;
        Size = 70.0;
        Material.Id = 15;
}
Sphere16
{
        Center = -256.8, 83.4, 5880;
        Size = 70.0;
        Material.Id = 16;
}
Sphere17
{
        Center = -218.4, 158.7, 5810;
        Size = 70.0;
        Material.Id = 17;
}
Sphere18
{
        Center = -158.7, 218.4, 5740;
        Size = 70.0;
        Material.Id = 18;
}
Sphere19
{
        Center = -83.4, 256.8, 5670;
        Size = 70.0;
        Material.Id = 19;
}
Sphere20
{
        Center = -0.0, 270.0, 5600;
        Size = 70.0;
        Material.Id = 20;
}
Sphere21
{
        Center = 83.4, 256.8, 5530;
        Size = 70.0;
        Material.Id = 21;
}
Sphere22
{
        Center = 158.7, 218.4, 5460;
        Size = 70.0;
        Material.Id = 22;
}
Sphere23
{
        Center = 218.4, 158.7, 5390;
        Size = 70.0;
        Material.Id = 23;
}
Sphere24
{
        Center = 256.8, 83.4, 5320;
        Size = 70.0;
        Material.Id = 24;
}
Sphere25
{
        Center = 270.0, 0.0, 5250;
        Size = 70.0;
        Material.Id = 25;
}
Sphere26
{
        Center = 256.8, -83.4, 5180;
        Size = 70.0;
        Material.Id = 26;
}
Sphere27
{
        Center = 218.4, -158.7, 5110;
        Size = 70.0;
        Material.Id = 27;
}
Sphere28
{
        Center = 158.7, -218.4, 5040;
        Size = 70.0;
        Material.Id = 28;
}
Sphere29
{
        Center = 83.4, -256.8, 4970;
        Size = 70.0;
        Material.Id = 29;
}
Sphere30
{
        Center = 0.0, -270.0, 4900;
        Size = 70.0;
        Material.Id = 30;
}
Sphere31
{
        Center = -83.4, -256.8, 4830;
        Size = 70.0;
        Material.Id = 31;
}
Sphere32
{
        Center = -158.7, -218.4, 4760;
        Size = 70.0;
        Material.Id = 32;
}
Sphere33
{
        Center = -218.4, -158.7, 4690;
        Size = 70.0;
        Material.Id = 33;
}
Sphere34
{
        Center = -256.8, -83.4, 4620;
        Size = 70.0;
        Material.Id = 34;
}
Sphere35
{
        Center = -270.0, -0.0, 4550;
        Size = 70.0;
        Material.Id = 35;
}
Sphere36
{
        Center = -256.8, 83.4, 4480;
        Size = 70.0;
        Material.Id = 36;
}
Sphere37
{
        Center = -218.4, 158.7, 4410;
        Size = 70.0;
        Material.Id = 37;
}
Sphere38
{
        Center = -158.7, 218.4, 4340;
        Size = 70.0;
        Material.Id = 38;
}
Sphere39
{
        Center = -83.4, 256.8, 4270;
        Size = 70.0;
        Material.Id = 39;
}
Sphere40
{
        Center = -0.0, 270.0, 4200;
        Size = 70.0;
        Material.Id = 0;
}
Sphere41
{
        Center = 83.4, 256.8, 4130;
        Size = 70.0;
        Material.Id = 1;
}
Sphere42
{
        Center = 158.7, 218.4, 4060;
        Size = 70.0;
        Material.Id = 2;
}
Sphere43
{
        Center = 218.4, 158.7, 3990;
        Size = 70.0;
        Material.Id = 3;
}
Sphere44
{
        Center = 256.8, 83.4, 3920;
        Size = 70.0;
        Material.Id = 4;
}
Sphere45
{
        Center = 270.0, 0.0, 3850;
        Size = 70.0;
        Material.Id = 5;
}
Sphere46
{
        Center = 256.8, -83.4, 3780;
        Size = 70.0;
        Material.Id = 6;
}
Sphere47
{
        Center = 218.4, -158.7, 3710;
        Size = 70.0;
        Material.Id = 7;
}
Sphere48
{
        Center = 158.7, -218.4, 3640;
        Size = 70.0;
        Material.Id = 8;
}
Sphere49
{
        Center = 83.4, -256.8, 3570;
        Size = 70.0;
        Material.Id = 9;
}
Sphere50
{
        Center = 0.0, -270.0, 3500;
        Size = 70.0;
        Material.Id = 10;
}
Sphere51
{
        Center = -83.4, -256.8, 3430;
        Size = 70.0;
        Material.Id = 11;
}
Sphere52
{
        Center = -158.7, -218.4, 3360;
        Size = 70.0;
        Material.Id = 12;
}
Sphere53
{
        Center = -218.4, -158.7, 3290;
        Size = 70.0;
        Material.Id = 13;
}
Sphere54
{
        Center = -256.8, -83.4, 3220;
        Size = 70.0;
        Material.Id = 14;
}
Sphere55
{
        Center = -270.0, -0.0, 3150;
        Size = 70.0;
        Material.Id = 15;
}
Sphere56
{
        Center = -256.8, 83.4, 3080;
        Size = 70.0;
        Material.Id = 16;
}
Sphere57
{
        Center = -218.4, 158.7, 3010;
        Size = 70.0;
        Material.Id = 17;
}
Sphere58
{
        Center = -158.7, 218.4, 2940;
        Size = 70.0;
        Material.Id = 18;
}
Sphere59
{
        Center = -83.4, 256.8, 2870;
        Size = 70.0;
        Material.Id = 19;
}
Sphere60
{
        Center = -0.0, 270.0, 2800;
        Size = 70.0;
        Material.Id = 20;
}
Sphere61
{
        Center = 83.4, 256.8, 2730;
        Size = 70.0;
        Material.Id = 21;
}
Sphere62
{
        Center = 158.7, 218.4, 2660;
        Size = 70.0;
        Material.Id = 22;
}
Sphere63
{
        Center = 218.4, 158.7, 2590;
        Size = 70.0;
        Material.Id = 23;
}
Sphere64
{
        Center = 256.8, 83.4, 2520;
        Size = 70.0;
        Material.Id = 24;
}
Sphere65
{
        Center = 270.0, -0.0, 2450;
        Size = 70.0;
        Material.Id = 25;
}
Sphere66
{
        Center = 256.8, -83.4, 2380;
        Size = 70.0;
        Material.Id = 26;
}
Sphere67
{
        Center = 218.4, -158.7, 2310;
        Size = 70.0;
        Material.Id = 27;
}
Sphere68
{
        Center = 158.7, -218.4, 2240;
        Size = 70.0;
        Material.Id = 28;
}
Sphere69
{
        Center = 83.4, -256.8, 2170;
        Size = 70.0;
        Material.Id = 29;
}
Sphere70
{
        Center = 0.0, -270.0, 2100;
        Size = 70.0;
        Material.Id = 30;
}
Sphere71
{
        Center = -83.4, -256.8, 2030;
        Size = 70.0;
        Material.Id = 31;
}
Sphere72
{
        Center = -158.7, -218.4, 1960;
        Size = 70.0;
        Material.Id = 32;
}
Sphere73
{
        Center = -218.4, -158.7, 1890;
        Size = 70.0;
        Material.Id = 33;
}
Sphere74
{
        Center = -256.8, -83.4, 1820;
        Size = 70.0;
        Material.Id = 34;
}
Sphere75
{
        Center = -270.0, -0.0, 1750;
        Size = 70.0;
        Material.Id = 35;
}
Sphere76
{
        Center = -256.8, 83.4, 1680;
        Size = 70.0;
        Material.Id = 36;
}
Sphere77
{
        Center = -218.4, 158.7, 1610;
        Size = 70.0;
        Material.Id = 37;
}
Sphere78
{
        Center = -158.7, 218.4, 1540;
        Size = 70.0;
        Material.Id = 38;
}
Sphere79
{
        Center = -83.4, 256.8, 1470;
        Size = 70.0;
        Material.Id = 39;
}
Sphere80
{
        Center = -0.0, 270.0, 1400;
        Size = 70.0;
        Material.Id = 0;
}
Sphere81
{
        Center = 83.4, 256.8, 1330;
        Size = 70.0;
        Material.Id = 1;
}
Sphere82
{
        Center = 158.7, 218.4, 1260;
        Size = 70.0;
        Material.Id = 2;
}
Sphere83
{
        Center = 218.4, 158.7, 1190;
        Size = 70.0;
        Material.Id = 3;
}
Sphere84
{
        Center = 256.8, 83.4, 1120;
        Size = 70.0;
        Material.Id = 4;
}
Sphere85
{
        Center = 270.0, -0.0, 1050;
        Size = 70.0;
        Material.Id = 5;
}
Sphere86
{
        Center = 256.8, -83.4, 980;
        Size = 70.0;
        Material.Id = 6;
}
Sphere87
{
        Center = 218.4, -158.7, 910;
        Size = 70.0;
        Material.Id = 7;
}
Sphere88
{
        Center = 158.7, -218.4, 840;
        Size = 70.0;
        Material.Id = 8;
}
Sphere89
{
        Center = 83.4, -256.8, 770;
        Size = 70.0;
        Material.Id = 9;
}
Sphere90
{
        Center = 0.0, -270.0, 700;
        Size = 70.0;
        Material.Id = 10;
}
Sphere91
{
        Center = -83.4, -256.8, 630;
        Size = 70.0;
        Material.Id = 11;
}
Sphere92
{
        Center = -158.7, -218.4, 560;
        Size = 70.0;
        Material.Id = 12;
}
Sphere93
{
        Center = -218.4, -158.7, 490;
        Size = 70.0;
        Material.Id = 13;
}
Sphere94
{
        Center = -256.8, -83.4, 420;
        Size = 70.0;
        Material.Id = 14;
}
Sphere95
{
        Center = -270.0, -0.0, 350;
        Size = 70.0;
        Material.Id = 15;
}
Sphere96
{
        Center = -256.8, 83.4, 280;
        Size = 70.0;
        Material.Id = 16;
}
Sphere97
{
        Center = -218.4, 158.7, 210;
        Size = 70.0;
        Material.Id = 17;
}
Sphere98
{
        Center = -158.7, 218.4, 140;
        Size = 70.0;
        Material.Id = 18;
}
Sphere99
{
        Center = -83.4, 256.8, 70;
        Size = 70.0;
        Material.Id = 19;
}
///////////////////////////////////////
//         List of lights            //
///////////////////////////////////////

Light0
{
        Position = 50.0, 100.0, 1100.0;
        Intensity = 0.001953, 0.001953, 0.001953;
}
Light1
{
        Position = 52.454123, 99.969879, 1100.0;
        Intensity = 0.001953, 0.001953, 0.001953;
}
Light2
{
        Position = 54.908246, 99.939758, 1100.0;
        Intensity = 0.001953, 0.001953, 0.001953;
}
Light3
{
        Position = 57.362369, 99.909637, 1100.0;
        Intensity = 0.001953, 0.001953, 0.001953;
}
Light4
{
        Position = 59.816492, 99.879516, 1100.0;
        Intensity = 0.001953, 0.001953, 0.001953;
}
Light5
{
        Position = 62.270615, 99.849395, 1100.0;
        Intensity = 0.001953, 0.001953, 0.001953;
}
Light6
{
        Position = 64.724738, 99.819274, 1100.0;
        Intensity = 0.001953, 0.001953, 0.001953;
}
Light7
{
        Position = 67.178861, 99.789153, 1100.0;
        Intensity = 0.001953, 0.001953, 0.001953;
}
Light8
{
        Position = 69.632984, 99.759032, 1100.0;
        Intensity = 0.001953, 0.001953, 0.001953;
}
Light9
{
        Position = 72.087107, 99.728911, 1100.0;
        Intensity = 0.001953, 0.001953, 0.001953;
}
Light10
{
        Position = 74.54123, 99.69879, 1100.0;
        Intensity = 0.001953, 0.001953, 0.001953;
}
Light11
{
        Position = 76.995353, 99.668669, 1100.0;
        Intensity = 0.001953, 0.001953, 0.001953;
}
Light12
{
        Position = 79.449476, 99.638548, 1100.0;
        Intensity = 0.001953, 0.001953, 0.001953;
}
Light13
{
        Position = 81.903599, 99.608427, 1100.0;
        Intensity = 0.001953, 0.001953, 0.001953;
}
Light14
{
        Position = 84.357722, 99.578306, 1100.0;
        Intensity = 0.001953, 0.001953, 0.001953;
}
Light15
{
        Position = 86.811845, 99.548185, 1100.0;
        Intensity = 0.001953, 0.001953, 0.001953;
}
Light16
{
        Position = 89.265968, 99.518064, 1100.0;
        Intensity = 0.001953, 0.001953, 0.001953;
}
Light17
{
        Position = 91.720091, 99.487943, 1100.0;
        Intensity = 0.001953, 0.001953, 0.001953;
}
Light18
{
        Position = 94.174214, 99.457822, 1100.0;
        Intensity = 0.001953, 0.001953, 0.001953;
}
Light19
{
        Position = 96.628337, 99.427701, 1100.0;
        Intensity = 0.001953, 0.001953, 0.001953;
}
Light20
{
        Position = 99.08246, 99.39758, 1100.0;
        Intensity = 0.001953, 0.001953, 0.001953;
}
Light21
{
        Position = 101.536583, 99.367459, 1100.0;
        Intensity = 0.001953, 0.001953, 0.001953;
}
Light22
{
        Position = 103.990706, 99.337338, 1100.0;
        Intensity = 0.001953, 0.001953, 0.001953;
}
Light23
{
        Position = 106.444829, 99.307217, 1100.0;
        Intensity = 0.001953, 0.001953, 0.001953;
}
Light24
{
        Position = 108.898952, 99.277096, 1100.0;
        Intensity = 0.001953, 0.001953, 0.001953;
}
Light25
{
        Position = 111.353075, 99.246975, 1100.0;
        Intensity = 0.001953, 0.001953, 0.001953;
}
Light26
{
        Position = 113.807198, 99.216854, 1100.0;
        Intensity = 0.001953, 0.001953, 0.001953;
}
Light27
{
        Position = 116.261321, 99.186733, 1100.0;
        Intensity = 0.001953, 0.001953, 0.001953;
}
Light28
{
        Position = 118.715444, 99.156612, 1100.0;
        Intensity = 0.001953, 0.001953, 0.001953;
}
Light29
{
        Position = 121.169567, 99.126491, 1100.0;
        Intensity = 0.001953, 0.001953, 0.001953;
}
Light30
{
        Position = 123.62369, 99.09637, 1100.0;
        Intensity = 0.001953, 0.001953, 0.001953;
}
Light31
{
        Position = 126.077813, 99.066249, 1100.0;
        Intensity = 0.001953, 0.001953, 0.001953;
}
Light32
{
        Position = 128.531936, 99.036128, 1100.0;
        Intensity = 0.001953, 0.001953, 0.001953;
}
Light33
{
        Position = 130.986059, 99.006007, 1100.0;
        Intensity = 0.001953, 0.001953, 0.001953;
}
Light34
{
        Position = 133.440182, 98.975886, 1100.0;
        Intensity = 0.001953, 0.001953, 0.001953;
}
Light35
{
        Position = 135.894305, 98.945765, 1100.0;
        Intensity = 0.001953, 0.001953, 0.001953;
}
Light36
{
        Position = 138.348428, 98.915644, 1100.0;
        Intensity = 0.001953, 0.001953, 0.001953;
}
Light37
{
        Position = 140.802551, 98.885523, 1100.0;
        Intensity = 0.001953, 0.001953, 0.001953;
}
Light38
{
        Position = 143.256674, 98.855402, 1100.0;
        Intensity = 0.001953, 0.001953, 0.001953;
}
Light39
{
        Position = 145.710797, 98.825281, 1100.0;
        Intensity = 0.001953, 0.001953, 0.001953;
}
Light40
{
        Position = 148.16492, 98.79516, 1100.0;
        Intensity = 0.001953, 0.001953, 0.001953;
}
Light41
{
        Position = 150.619043, 98.765039, 1100.0;
        Intensity = 0.001953, 0.001953, 0.001953;
}
Light42
{
        Position = 153.073166, 98.734918, 1100.0;
        Intensity = 0.001953, 0.001953, 0.001953;
}
Light43
{
        Position = 155.527289, 98.704797, 1100.0;
        Intensity = 0.001953, 0.001953, 0.001953;
}
Light44
{
        Position = 157.981412, 98.674676, 1100.0;
        Intensity = 0.001953, 0.001953, 0.001953;
}
Light45
{
        Position = 160.435535, 98.644555, 1100.0;
        Intensity = 0.001953, 0.001953, 0.001953;
}
Light46
{
        Position = 162.889658, 98.614434, 1100.0;
        Intensity = 0.001953, 0.001953, 0.001953;
}
Light47
{
        Position = 165.343781, 98.584313, 1100.0;
        Intensity = 0.001953, 0.001953, 0.001953;
}
Light48
{
        Position = 167.797904, 98.554192, 1100.0;
        Intensity = 0.001953, 0.001953, 0.001953;
}
Light49
{
        Position = 170.252027, 98.524071, 1100.0;
        Intensity = 0.001953, 0.001953, 0.001953;
}
Light50
{
        Position = 172.70615, 98.49395, 1100.0;
        Intensity = 0.001953, 0.001953, 0.001953;
}
Light51
{
        Position = 175.160273, 98.463829, 1100.0;
        Intensity = 0.001953, 0.001953, 0.001953;
}
Light52
{
        Position = 177.614396, 98.433708, 1100.0;
        Intensity = 0.001953, 0.001953, 0.001953;
}
Light53
{
        Position = 180.068519, 98.403587, 1100.0;
        Intensity = 0.001953, 0.001953, 0.001953;
}
Light54
{
        Position = 182.522642, 98.373466, 1100.0;
        Intensity = 0.001953, 0.001953, 0.001953;
}
Light55
{
        Position = 184.976765, 98.343345, 1100.0;
        Intensity = 0.001953, 0.001953, 0.001953;
}
Light56
{
        Position = 187.430888, 98.313224, 1100.0;
        Intensity = 0.001953, 0.001953, 0.001953;
}
Light57
{
        Position = 189.885011, 98.283103, 1100.0;
        Intensity = 0.001953, 0.001953, 0.001953;
}
Light58
{
        Position = 192.339134, 98.252982, 1100.0;
        Intensity = 0.001953, 0.001953, 0.001953;
}
Light59
{
        Position = 194.793257, 98.222861, 1100.0;
        Intensity = 0.001953, 0.001953, 0.001953;
}
Light60
{
        Position = 197.24738, 98.19274, 1100.0;
        Intensity = 0.001953, 0.001953, 0.001953;
}
Light61
{
        Position = 199.701503, 98.162619, 1100.0;
        Intensity = 0.001953, 0.001953, 0.001953;
}
Light62
{
        Position = 202.155626, 98.132498, 1100.0;
        Intensity = 0.001953, 0.001953, 0.001953;
}
Light63
{
        Position = 204.609749, 98.102377, 1100.0;
        Intensity = 0.001953, 0.001953, 0.001953;
}
Light64
{
        Position = 207.063872, 98.072256, 1100.0;
        Intensity = 0.001953, 0.001953, 0.001953;
}
Light65
{
        Position = 209.517995, 98.042135, 1100.0;
        Intensity = 0.001953, 0.001953, 0.001953;
}
Light66
{
        Position = 211.972118, 98.012014, 1100.0;
        Intensity = 0.001953, 0.001953, 0.001953;
}
Light67
{
        Position = 214.426241, 97.981893, 1100.0;
        Intensity = 0.001953, 0.001953, 0.001953;
}
Light68
{
        Position = 216.880364, 97.951772, 1100.0;
        Intensity = 0.001953, 0.001953, 0.001953;
}
Light69
{
        Position = 219.334487, 97.921651, 1100.0;
        Intensity = 0.001953, 0.001953, 0.001953;
}
Light70
{
        Position = 221.78861, 97.89153, 1100.0;
        Intensity = 0.001953, 0.001953, 0.001953;
}
Light71
{
        Position = 224.242733, 97.861409, 1100.0;
        Intensity = 0.001953, 0.001953, 0.001953;
}
Light72
{
        Position = 226.696856, 97.831288, 1100.0;
        Intensity = 0.001953, 0.001953, 0.001953;
}
Light73
{
        Position = 229.150979, 97.801167, 1100.0;
        Intensity = 0.001953, 0.001953, 0.001953;
}
Light74
{
        Position = 231.605102, 97.771046, 1100.0;
        Intensity = 0.001953, 0.001953, 0.001953;
}
Light75
{
        Position = 234.059225, 97.740925, 1100.0;
        Intensity = 0.001953, 0.001953, 0.001953;
}
Light76
{
        Position = 236.513348, 97.710804, 1100.0;
        Intensity = 0.001953, 0.001953, 0.001953;
}
Light77
{
        Position = 238.967471, 97.680683, 1100.0;
        Intensity = 0.001953, 0.001953, 0.001953;
}
Light78
{
        Position = 241.421594, 97.650562, 1100.0;
        Intensity = 0.001953, 0.001953, 0.001953;
}
Light79
{
        Position = 243.875717, 97.620441, 1100.0;
        Intensity = 0.001953, 0.001953, 0.001953;
}
Light80
{
        Position = 246.32984, 97.59032, 1100.0;
        Intensity = 0.001953, 0.001953, 0.001953;
}
Light81
{
        Position = 248.783963, 97.560199, 1100.0;
        Intensity = 0.001953, 0.001953, 0.001953;
}
Light82
{
        Position = 251.238086, 97.530078, 1100.0;
        Intensity = 0.001953, 0.001953, 0.001953;
}
Light83
{
        Position = 253.692209, 97.499957, 1100.0;
        Intensity = 0.001953, 0.001953, 0.001953;
}
Light84
{
        Position = 256.146332, 97.469836, 1100.0;
        Intensity = 0.001953, 0.001953, 0.001953;
}
Light85
{
        Position = 258.600455, 97.439715, 1100.0;
        Intensity = 0.001953, 0.001953, 0.001953;
}
Light86
{
        Position = 261.054578, 97.409594, 1100.0;
        Intensity = 0.001953, 0.001953, 0.001953;
}
Light87
{
        Position = 263.508701, 97.379473, 1100.0;
        Intensity = 0.001953, 0.001953, 0.001953;
}
Light88
{
        Position = 265.962824, 97.349352, 1100.0;
        Intensity = 0.001953, 0.001953, 0.001953;
}
Light89
{
        Position = 268.416947, 97.319231, 1100.0;
        Intensity = 0.001953, 0.001953, 0.001953;
}
Light90
{
        Position = 270.87107, 97.28911, 1100.0;
        Intensity = 0.001953, 0.001953, 0.001953;
}
Light91
{
        Position = 273.325193, 97.258989, 1100.0;
        Intensity = 0.001953, 0.001953, 0.001953;
}
Light92
{
        Position = 275.779316, 97.228868, 1100.0;
        Intensity = 0.001953, 0.001953, 0.001953;
}
Light93
{
        Position = 278.233439, 97.198747, 1100.0;
        Intensity = 0.001953, 0.001953, 0.001953;
}
Light94
{
        Position = 280.687562, 97.168626, 1100.0;
        Intensity = 0.001953, 0.001953, 0.001953;
}
Light95
{
        Position = 283.141685, 97.138505, 1100.0;
        Intensity = 0.001953, 0.001953, 0.001953;
}
Light96
{
        Position = 285.595808, 97.108384, 1100.0;
        Intensity = 0.001953, 0.001953, 0.001953;
}
Light97
{
        Position = 288.049931, 97.078263, 1100.0;
        Intensity = 0.001953, 0.001953, 0.001953;
}
Light98
{
        Position = 290.504054, 97.048142, 1100.0;
        Intensity = 0.001953, 0.001953, 0.001953;
}
Light99
{
        Position = 292.958177, 97.018021, 1100.0;
        Intensity = 0.001953, 0.001953, 0.001953;
}
Light100
{
        Position = 295.4123, 96.9879, 1100.0;
        Intensity = 0.001953, 0.001953, 0.001953;
}
Light101
{
        Position = 297.866423, 96.957779, 1100.0;
        Intensity = 0.001953, 0.001953, 0.001953;
}
Light102
{
        Position = 300.320546, 96.927658, 1100.0;
        Intensity = 0.001953, 0.001953, 0.001953;
}
Light103
{
        Position = 302.774669, 96.897537, 1100.0;
        Intensity = 0.001953, 0.001953, 0.001953;
}
Light104
{
        Position = 305.228792, 96.867416, 1100.0;
        Intensity = 0.001953, 0.001953, 0.001953;
}
Light105
{
        Position = 307.682915, 96.837295, 1100.0;
        Intensity = 0.001953, 0.001953, 0.001953;
}
Light106
{
        Position = 310.137038, 96.807174, 1100.0;
        Intensity = 0.001953, 0.001953, 0.001953;
}
Light107
{
        Position = 312.591161, 96.777053, 1100.0;
        Intensity = 0.001953, 0.001953, 0.001953;
}
Light108
{
        Position = 315.045284, 96.746932, 1100.0;
        Intensity = 0.001953, 0.001953, 0.001953;
}
Light109
{
        Position = 317.499407, 96.716811, 1100.0;
        Intensity = 0.001953, 0.001953, 0.001953;
}
Light110
{
        Position = 319.95353, 96.68669, 1100.0;
        Intensity = 0.001953, 0.001953, 0.001953;
}
Light111
{
        Position = 322.407653, 96.656569, 1100.0;
        Intensity = 0.001953, 0.001953, 0.001953;
}
Light112
{
        Position = 324.861776, 96.626448, 1100.0;
        Intensity = 0.001953, 0.001953, 0.001953;
}
Light113
{
        Position = 327.315899, 96.596327, 1100.0;
        Intensity = 0.001953, 0.001953, 0.001953;
}
Light114
{
        Position = 329.770022, 96.566206, 1100.0;
        Intensity = 0.001953, 0.001953, 0.001953;
}
Light115
{
        Position = 332.224145, 96.536085, 1100.0;
        Intensity = 0.001953, 0.001953, 0.001953;
}
Light116
{
        Position = 334.678268, 96.505964, 1100.0;
        Intensity = 0.001953, 0.001953, 0.001953;
}
Light117
{
        Position = 337.132391, 96.475843, 1100.0;
        Intensity = 0.001953, 0.001953, 0.001953;
}
Light118
{
        Position = 339.586514, 96.445722, 1100.0;
        Intensity = 0.001953, 0.001953, 0.001953;
}
Light119
{
        Position = 342.040637, 96.415601, 1100.0;
        Intensity = 0.001953, 0.001953, 0.001953;
}
Light120
{
        Position = 344.49476, 96.38548, 1100.0;
        Intensity = 0.001953, 0.001953, 0.001953;
}
Light121
{
        Position = 346.948883, 96.355359, 1100.0;
        Intensity = 0.001953, 0.001953, 0.001953;
}
Light122
{
        Position = 349.403006, 96.325238, 1100.0;
        Intensity = 0.001953, 0.001953, 0.001953;
}
Light123
{
        Position = 351.857129, 96.295117, 1100.0;
        Intensity = 0.001953, 0.001953, 0.001953;
}
Light124
{
        Position = 354.311252, 96.264996, 1100.0;
        Intensity = 0.001953, 0.001953, 0.001953;
}
Light125
{
        Position = 356.765375, 96.234875, 1100.0;
        Intensity = 0.001953, 0.001953, 0.001953;
}
Light126
{
        Position = 359.219498, 96.204754, 1100.0;
        Intensity = 0.001953, 0.001953, 0.001953;
}
Light127
{
        Position = 361.673621, 96.174633, 1100.0;
        Intensity = 0.001953, 0.001953, 0.001953;
}
Light128
{
        Position = 364.127744, 96.144512, 1100.0;
        Intensity = 0.001953, 0.001953, 0.001953;
}
Light129
{
        Position = 366.581867, 96.114391, 1100.0;
        Intensity = 0.001953, 0.001953, 0.001953;
}
Light130
{
        Position = 369.03599, 96.08427, 1100.0;
        Intensity = 0.001953, 0.001953, 0.001953;
}
Light131
{
        Position = 371.490113, 96.054149, 1100.0;
        Intensity = 0.001953, 0.001953, 0.001953;
}
Light132
{
        Position = 373.944236, 96.024028, 1100.0;
        Intensity = 0.001953, 0.001953, 0.001953;
}
Light133
{
        Position = 376.398359, 95.993907, 1100.0;
        Intensity = 0.001953, 0.001953, 0.001953;
}
Light134
{
        Position = 378.852482, 95.963786, 1100.0;
        Intensity = 0.001953, 0.001953, 0.001953;
}
Light135
{
        Position = 381.306605, 95.933665, 1100.0;
        Intensity = 0.001953, 0.001953, 0.001953;
}
Light136
{
        Position = 383.760728, 95.903544, 1100.0;
        Intensity = 0.001953, 0.001953, 0.001953;
}
Light137
{
        Position = 386.214851, 95.873423, 1100.0;
        Intensity = 0.001953, 0.001953, 0.001953;
}
Light138
{
        Position = 388.668974, 95.843302, 1100.0;
        Intensity = 0.001953, 0.001953, 0.001953;
}
Light139
{
        Position = 391.123097, 95.813181, 1100.0;
        Intensity = 0.001953, 0.001953, 0.001953;
}
Light140
{
        Position = 393.57722, 95.78306, 1100.0;
        Intensity = 0.001953, 0.001953, 0.001953;
}
Light141
{
        Position = 396.031343, 95.752939, 1100.0;
        Intensity = 0.001953, 0.001953, 0.001953;
}
Light142
{
        Position = 398.485466, 95.722818, 1100.0;
        Intensity = 0.001953, 0.001953, 0.001953;
}
Light143
{
        Position = 400.939589, 95.692697, 1100.0;
        Intensity = 0.001953, 0.001953, 0.001953;
}
Light144
{
        Position = 403.393712, 95.662576, 1100.0;
        Intensity = 0.001953, 0.001953, 0.001953;
}
Light145
{
        Position = 405.847835, 95.632455, 1100.0;
        Intensity = 0.001953, 0.001953, 0.001953;
}
Light146
{
        Position = 408.301958, 95.602334, 1100.0;
        Intensity = 0.001953, 0.001953, 0.001953;
}
Light147
{
        Position = 410.756081, 95.572213, 1100.0;
        Intensity = 0.001953, 0.001953, 0.001953;
}
Light148
{
        Position = 413.210204, 95.542092, 1100.0;
        Intensity = 0.001953, 0.001953, 0.001953;
}
Light149
{
        Position = 415.664327, 95.511971, 1100.0;
        Intensity = 0.001953, 0.001953, 0.001953;
}
Light150
{
        Position = 418.11845, 95.48185, 1100.0;
        Intensity = 0.001953, 0.001953, 0.001953;
}
Light151
{
        Position = 420.572573, 95.451729, 1100.0;
        Intensity = 0.001953, 0.001953, 0.001953;
}
Light152
{
        Position = 423.026696, 95.421608, 1100.0;
        Intensity = 0.001953, 0.001953, 0.001953;
}
Light153
{
        Position = 425.480819, 95.391487, 1100.0;
        Intensity = 0.001953, 0.001953, 0.001953;
}
Light154
{
        Position = 427.934942, 95.361366, 1100.0;
        Intensity = 0.001953, 0.001953, 0.001953;
}
Light155
{
        Position = 430.389065, 95.331245, 1100.0;
        Intensity = 0.001953, 0.001953, 0.001953;
}
Light156
{
        Position = 432.843188, 95.301124, 1100.0;
        Intensity = 0.001953, 0.001953, 0.001953;
}
Light157
{
        Position = 435.297311, 95.271003, 1100.0;
        Intensity = 0.001953, 0.001953, 0.001953;
}
Light158
{
        Position = 437.751434, 95.240882, 1100.0;
        Intensity = 0.001953, 0.001953, 0.001953;
}
Light159
{
        Position = 440.205557, 95.210761, 1100.0;
        Intensity = 0.001953, 0.001953, 0.001953;
}
Light160
{
        Position = 442.65968, 95.18064, 1100.0;
        Intensity = 0.001953, 0.001953, 0.001953;
}
Light161
{
        Position = 445.113803, 95.150519, 1100.0;
        Intensity = 0.001953, 0.001953, 0.001953;
}
Light162
{
        Position = 447.567926, 95.120398, 1100.0;
        Intensity = 0.001953, 0.001953, 0.001953;
}
Light163
{
        Position = 450.022049, 95.090277, 1100.0;
        Intensity = 0.001953, 0.001953, 0.001953;
}
Light164
{
        Position = 452.476172, 95.060156, 1100.0;
        Intensity = 0.001953, 0.001953, 0.001953;
}
Light165
{
        Position = 454.930295, 95.030035, 1100.0;
        Intensity = 0.001953, 0.001953, 0.001953;
}
Light166
{
        Position = 457.384418, 94.999914, 1100.0;
        Intensity = 0.001953, 0.001953, 0.001953;
}
Light167
{
        Position = 459.838541, 94.969793, 1100.0;
        Intensity = 0.001953, 0.001953, 0.001953;
}
Light168
{
        Position = 462.292664, 94.939672, 1100.0;
        Intensity = 0.001953, 0.001953, 0.001953;
}
Light169
{
        Position = 464.746787, 94.909551, 1100.0;
        Intensity = 0.001953, 0.001953, 0.001953;
}
Light170
{
        Position = 467.20091, 94.87943, 1100.0;
        Intensity = 0.001953, 0.001953, 0.001953;
}
Light171
{
        Position = 469.655033, 94.849309, 1100.0;
        Intensity = 0.001953, 0.001953, 0.001953;
}
Light172
{
        Position = 472.109156, 94.819188, 1100.0;
        Intensity = 0.001953, 0.001953, 0.001953;
}
Light173
{
        Position = 474.563279, 94.789067, 1100.0;
        Intensity = 0.001953, 0.001953, 0.001953;
}
Light174
{
        Position = 477.017402, 94.758946, 1100.0;
        Intensity = 0.001953, 0.001953, 0.001953;
}
Light175
{
        Position = 479.471525, 94.728825, 1100.0;
        Intensity = 0.001953, 0.001953, 0.001953;
}
Light176
{
        Position = 481.925648, 94.698704, 1100.0;
        Intensity = 0.001953, 0.001953, 0.001953;
}
Light177
{
        Position = 484.379771, 94.668583, 1100.0;
        Intensity = 0.001953, 0.001953, 0.001953;
}
Light178
{
        Position = 486.833894, 94.638462, 1100.0;
        Intensity = 0.001953, 0.001953, 0.001953;
}
Light179
{
        Position = 489.288017, 94.608341, 1100.0;
        Intensity = 0.001953, 0.001953, 0.001953;
}
Light180
{
        Position = 491.74214, 94.57822, 1100.0;
        Intensity = 0.001953, 0.001953, 0.001953;
}
Light181
{
        Position = 494.196263, 94.548099, 1100.0;
        Intensity = 0.001953, 0.001953, 0.001953;
}
Light182
{
        Position = 496.650386, 94.517978, 1100.0;
        Intensity = 0.001953, 0.001953, 0.001953;
}
Light183
{
        Position = 499.104509, 94.487857, 1100.0;
        Intensity = 0.001953, 0.001953, 0.001953;
}
Light184
{
        Position = 501.558632, 94.457736, 1100.0;
        Intensity = 0.001953, 0.001953, 0.001953;
}
Light185
{
        Position = 504.012755, 94.427615, 1100.0;
        Intensity = 0.001953, 0.001953, 0.001953;
}
Light186
{
        Position = 506.466878, 94.397494, 1100.0;
        Intensity = 0.001953, 0.001953, 0.001953;
}
Light187
{
        Position = 508.921001, 94.367373, 1100.0;
        Intensity = 0.001953, 0.001953, 0.001953;
}
Light188
{
        Position = 511.375124, 94.337252, 1100.0;
        Intensity = 0.001953, 0.001953, 0.001953;
}
Light189
{
        Position = 513.829247, 94.307131, 1100.0;
        Intensity = 0.001953, 0.001953, 0.001953;
}
Light190
{
        Position = 516.28337, 94.27701, 1100.0;
        Intensity = 0.001953, 0.001953, 0.001953;
}
Light191
{
        Position = 518.737493, 94.246889, 1100.0;
        Intensity = 0.001953, 0.001953, 0.001953;
}
Light192
{
        Position = 521.191616, 94.216768, 1100.0;
        Intensity = 0.001953, 0.001953, 0.001953;
}
Light193
{
        Position = 523.645739, 94.186647, 1100.0;
        Intensity = 0.001953, 0.001953, 0.001953;
}
Light194
{
        Position = 526.099862, 94.156526, 1100.0;
        Intensity = 0.001953, 0.001953, 0.001953;
}
Light195
{
        Position = 528.553985, 94.126405, 1100.0;
        Intensity = 0.001953, 0.001953, 0.001953;
}
Light196
{
        Position = 531.008108, 94.096284, 1100.0;
        Intensity = 0.001953, 0.001953, 0.001953;
}
Light197
{
        Position = 533.462231, 94.066163, 1100.0;
        Intensity = 0.001953, 0.001953, 0.001953;
}
Light198
{
        Position = 535.916354, 94.036042, 1100.0;
        Intensity = 0.001953, 0.001953, 0.001953;
}
Light199
{
        Position = 538.370477, 94.005921, 1100.0;
        Intensity = 0.001953, 0.001953, 0.001953;
}
Light200
{
        Position = 540.8246, 93.9758, 1100.0;
        Intensity = 0.001953, 0.001953, 0.001953;
}
Light201
{
        Position = 543.278723, 93.945679, 1100.0;
        Intensity = 0.001953, 0.001953, 0.001953;
}
Light202
{
        Position = 545.732846, 93.915558, 1100.0;
        Intensity = 0.001953, 0.001953, 0.001953;
}
Light203
{
        Position = 548.186969, 93.885437, 1100.0;
        Intensity = 0.001953, 0.001953, 0.001953;
}
Light204
{
        Position = 550.641092, 93.855316, 1100.0;
        Intensity = 0.001953, 0.001953, 0.001953;
}
Light205
{
        Position = 553.095215, 93.825195, 1100.0;
        Intensity = 0.001953, 0.001953, 0.001953;
}
Light206
{
        Position = 555.549338, 93.795074, 1100.0;
        Intensity = 0.001953, 0.001953, 0.001953;
}
Light207
{
        Position = 558.003461, 93.764953, 1100.0;
        Intensity = 0.001953, 0.001953, 0.001953;
}
Light208
{
        Position = 560.457584, 93.734832, 1100.0;
        Intensity = 0.001953, 0.001953, 0.001953;
}
Light209
{
        Position = 562.911707, 93.704711, 1100.0;
        Intensity = 0.001953, 0.001953, 0.001953;
}
Light210
{
        Position = 565.36583, 93.67459, 1100.0;
        Intensity = 0.001953, 0.001953, 0.001953;
}
Light211
{
        Position = 567.819953, 93.644469, 1100.0;
        Intensity = 0.001953, 0.001953, 0.001953;
}
Light212
{
        Position = 570.274076, 93.614348, 1100.0;
        Intensity = 0.001953, 0.001953, 0.001953;
}
Light213
{
        Position = 572.728199, 93.584227, 1100.0;
        Intensity = 0.001953, 0.001953, 0.001953;
}
Light214
{
        Position = 575.182322, 93.554106, 1100.0;
        Intensity = 0.001953, 0.001953, 0.001953;
}
Light215
{
        Position = 577.636445, 93.523985, 1100.0;
        Intensity = 0.001953, 0.001953, 0.001953;
}
Light216
{
        Position = 580.090568, 93.493864, 1100.0;
        Intensity = 0.001953, 0.001953, 0.001953;
}
Light217
{
        Position = 582.544691, 93.463743, 1100.0;
        Intensity = 0.001953, 0.001953, 0.001953;
}
Light218
{
        Position = 584.998814, 93.433622, 1100.0;
        Intensity = 0.001953, 0.001953, 0.001953;
}
Light219
{
        Position = 587.452937, 93.403501, 1100.0;
        Intensity = 0.001953, 0.001953, 0.001953;
}
Light220
{
        Position = 589.90706, 93.37338, 1100.0;
        Intensity = 0.001953, 0.001953, 0.001953;
}
Light221
{
        Position = 592.361183, 93.343259, 1100.0;
        Intensity = 0.001953, 0.001953, 0.001953;
}
Light222
{
        Position = 594.815306, 93.313138, 1100.0;
        Intensity = 0.001953, 0.001953, 0.001953;
}
Light223
{
        Position = 597.269429, 93.283017, 1100.0;
        Intensity = 0.001953, 0.001953, 0.001953;
}
Light224
{
        Position = 599.723552, 93.252896, 1100.0;
        Intensity = 0.001953, 0.001953, 0.001953;
}
Light225
{
        Position = 602.177675, 93.222775, 1100.0;
        Intensity = 0.001953, 0.001953, 0.001953;
}
Light226
{
        Position = 604.631798, 93.192654, 1100.0;
        Intensity = 0.001953, 0.001953, 0.001953;
}
Light227
{
        Position = 607.085921, 93.162533, 1100.0;
        Intensity = 0.001953, 0.001953, 0.001953;
}
Light228
{
        Position = 609.540044, 93.132412, 1100.0;
        Intensity = 0.001953, 0.001953, 0.001953;
}
Light229
{
        Position = 611.994167, 93.102291, 1100.0;
        Intensity = 0.001953, 0.001953, 0.001953;
}
Light230
{
        Position = 614.44829, 93.07217, 1100.0;
        Intensity = 0.001953, 0.001953, 0.001953;
}
Light231
{
        Position = 616.902413, 93.042049, 1100.0;
        Intensity = 0.001953, 0.001953, 0.001953;
}
Light232
{
        Position = 619.356536, 93.011928, 1100.0;
        Intensity = 0.001953, 0.001953, 0.001953;
}
Light233
{
        Position = 621.810659, 92.981807, 1100.0;
        Intensity = 0.001953, 0.001953, 0.001953;
}
Light234
{
        Position = 624.264782, 92.951686, 1100.0;
        Intensity = 0.001953, 0.001953, 0.001953;
}
Light235
{
        Position = 626.718905, 92.921565, 1100.0;
        Intensity = 0.001953, 0.001953, 0.001953;
}
Light236
{
        Position = 629.173028, 92.891444, 1100.0;
        Intensity = 0.001953, 0.001953, 0.001953;
}
Light237
{
        Position = 631.627151, 92.861323, 1100.0;
        Intensity = 0.001953, 0.001953, 0.001953;
}
Light238
{
        Position = 634.081274, 92.831202, 1100.0;
        Intensity = 0.001953, 0.001953, 0.001953;
}
Light239
{
        Position = 636.535397, 92.801081, 1100.0;
        Intensity = 0.001953, 0.001953, 0.001953;
}
Light240
{
        Position = 638.98952, 92.77096, 1100.0;
        Intensity = 0.001953, 0.001953, 0.001953;
}
Light241
{
        Position = 641.443643, 92.740839, 1100.0;
        Intensity = 0.001953, 0.001953, 0.001953;
}
Light242
{
        Position = 643.897766, 92.710718, 1100.0;
        Intensity = 0.001953, 0.001953, 0.001953;
}
Light243
{
        Position = 646.351889, 92.680597, 1100.0;
        Intensity = 0.001953, 0.001953, 0.001953;
}
Light244
{
        Position = 648.806012, 92.650476, 1100.0;
        Intensity = 0.001953, 0.001953, 0.001953;
}
Light245
{
        Position = 651.260135, 92.620355, 1100.0;
        Intensity = 0.001953, 0.001953, 0.001953;
}
Light246
{
        Position = 653.714258, 92.590234, 1100.0;
        Intensity = 0.001953, 0.001953, 0.001953;
}
Light247
{
        Position = 656.168381, 92.560113, 1100.0;
        Intensity = 0.001953, 0.001953, 0.001953;
}
Light248
{
        Position = 658.622504, 92.529992, 1100.0;
        Intensity = 0.001953, 0.001953, 0.001953;
}
Light249
{
        Position = 661.076627, 92.499871, 1100.0;
        Intensity = 0.001953, 0.001953, 0.001953;
}
Light250
{
        Position = 663.53075, 92.46975, 1100.0;
        Intensity = 0.001953, 0.001953, 0.001953;
}
Light251
{
        Position = 665.984873, 92.439629, 1100.0;
        Intensity = 0.001953, 0.001953, 0.001953;
}
Light252
{
        Position = 668.438996, 92.409508, 1100.0;
        Intensity = 0.001953, 0.001953, 0.001953;
}
Light253
{
        Position = 670.893119, 92.379387, 1100.0;
        Intensity = 0.001953, 0.001953, 0.001953;
}
Light254
{
        Position = 673.347242, 92.349266, 1100.0;
        Intensity = 0.001953, 0.001953, 0.001953;
}
Light255
{
        Position = 675.801365, 92.319145, 1100.0;
        Intensity = 0.001953, 0.001953, 0.001953;
}
Light256
{
        Position = 678.255488, 92.289024, 1100.0;
        Intensity = 0.001953, 0.001953, 0.001953;
}
Light257
{
        Position = 680.709611, 92.258903, 1100.0;
        Intensity = 0.001953, 0.001953, 0.001953;
}
Light258
{
        Position = 683.163734, 92.228782, 1100.0;
        Intensity = 0.001953, 0.001953, 0.001953;
}
Light259
{
        Position = 685.617857, 92.198661, 1100.0;
        Intensity = 0.001953, 0.001953, 0.001953;
}
Light260
{
        Position = 688.07198, 92.16854, 1100.0;
        Intensity = 0.001953, 0.001953, 0.001953;
}
Light261
{
        Position = 690.526103, 92.138419, 1100.0;
        Intensity = 0.001953, 0.001953, 0.001953;
}
Light262
{
        Position = 692.980226, 92.108298, 1100.0;
        Intensity = 0.001953, 0.001953, 0.001953;
}
Light263
{
        Position = 695.434349, 92.078177, 1100.0;
        Intensity = 0.001953, 0.001953, 0.001953;
}
Light264
{
        Position = 697.888472, 92.048056, 1100.0;
        Intensity = 0.001953, 0.001953, 0.001953;
}
Light265
{
        Position = 700.342595, 92.017935, 1100.0;
        Intensity = 0.001953, 0.001953, 0.001953;
}
Light266
{
        Position = 702.796718, 91.987814, 1100.0;
        Intensity = 0.001953, 0.001953, 0.001953;
}
Light267
{
        Position = 705.250841, 91.957693, 1100.0;
        Intensity = 0.001953, 0.001953, 0.001953;
}
Light268
{
        Position = 707.704964, 91.927572, 1100.0;
        Intensity = 0.001953, 0.001953, 0.001953;
}
Light269
{
        Position = 710.159087, 91.897451, 1100.0;
        Intensity = 0.001953, 0.001953, 0.001953;
}
Light270
{
        Position = 712.61321, 91.86733, 1100.0;
        Intensity = 0.001953, 0.001953, 0.001953;
}
Light271
{
        Position = 715.067333, 91.837209, 1100.0;
        Intensity = 0.001953, 0.001953, 0.001953;
}
Light272
{
        Position = 717.521456, 91.807088, 1100.0;
        Intensity = 0.001953, 0.001953, 0.001953;
}
Light273
{
        Position = 719.975579, 91.776967, 1100.0;
        Intensity = 0.001953, 0.001953, 0.001953;
}
Light274
{
        Position = 722.429702, 91.746846, 1100.0;
        Intensity = 0.001953, 0.001953, 0.001953;
}
Light275
{
        Position = 724.883825, 91.716725, 1100.0;
        Intensity = 0.001953, 0.001953, 0.001953;
}
Light276
{
        Position = 727.337948, 91.686604, 1100.0;
        Intensity = 0.001953, 0.001953, 0.001953;
}
Light277
{
        Position = 729.792071, 91.656483, 1100.0;
        Intensity = 0.001953, 0.001953, 0.001953;
}
Light278
{
        Position = 732.246194, 91.626362, 1100.0;
        Intensity = 0.001953, 0.001953, 0.001953;
}
Light279
{
        Position = 734.700317, 91.596241, 1100.0;
        Intensity = 0.001953, 0.001953, 0.001953;
}
Light280
{
        Position = 737.15444, 91.56612, 1100.0;
        Intensity = 0.001953, 0.001953, 0.001953;
}
Light281
{
        Position = 739.608563, 91.535999, 1100.0;
        Intensity = 0.001953, 0.001953, 0.001953;
}
Light282
{
        Position = 742.062686, 91.505878, 1100.0;
        Intensity = 0.001953, 0.001953, 0.001953;
}
Light283
{
        Position = 744.516809, 91.475757, 1100.0;
        Intensity = 0.001953, 0.001953, 0.001953;
}
Light284
{
        Position = 746.970932, 91.445636, 1100.0;
        Intensity = 0.001953, 0.001953, 0.001953;
}
Light285
{
        Position = 749.425055, 91.415515, 1100.0;
        Intensity = 0.001953, 0.001953, 0.001953;
}
Light286
{
        Position = 751.879178, 91.385394, 1100.0;
        Intensity = 0.001953, 0.001953, 0.001953;
}
Light287
{
        Position = 754.333301, 91.355273, 1100.0;
        Intensity = 0.001953, 0.001953, 0.001953;
}
Light288
{
        Position = 756.787424, 91.325152, 1100.0;
        Intensity = 0.001953, 0.001953, 0.001953;
}
Light289
{
        Position = 759.241547, 91.295031, 1100.0;
        Intensity = 0.001953, 0.001953, 0.001953;
}
Light290
{
        Position = 761.69567, 91.26491, 1100.0;
        Intensity = 0.001953, 0.001953, 0.001953;
}
Light291
{
        Position = 764.149793, 91.234789, 1100.0;
        Intensity = 0.001953, 0.001953, 0.001953;
}
Light292
{
        Position = 766.603916, 91.204668, 1100.0;
        Intensity = 0.001953, 0.001953, 0.001953;
}
Light293
{
        Position = 769.058039, 91.174547, 1100.0;
        Intensity = 0.001953, 0.001953, 0.001953;
}
Light294
{
        Position = 771.512162, 91.144426, 1100.0;
        Intensity = 0.001953, 0.001953, 0.001953;
}
Light295
{
        Position = 773.966285, 91.114305, 1100.0;
        Intensity = 0.001953, 0.001953, 0.001953;
}
Light296
{
        Position = 776.420408, 91.084184, 1100.0;
        Intensity = 0.001953, 0.001953, 0.001953;
}
Light297
{
        Position = 778.874531, 91.054063, 1100.0;
        Intensity = 0.001953, 0.001953, 0.001953;
}
Light298
{
        Position = 781.328654, 91.023942, 1100.0;
        Intensity = 0.001953, 0.001953, 0.001953;
}
Light299
{
        Position = 783.782777, 90.993821, 1100.0;
        Intensity = 0.001953, 0.001953, 0.001953;
}
